Tidy Multiverse Analysis Made Simple • mverse
…
Fit Model

glm_mverse() multiplexes stats::glm() function and fits a GLM in each universe according to the specifications provided by add_fomula_branch() and add_family_branch().

mv <- mv %>% glm_mverse()

Extract Results

After completing the analysis, we can extract the results using summary(). The method returns a table with branching options, estimates, 95% confidence intervals for all regression terms across the multiverse.

res <- summary(mv)
res
#> # A tibble: 24 × 16
#>    universe outliers_branch strength_branch model_branch distribution_branch
#>    <fct>    <fct>           <fct>           <fct>        <fct>              
#>  1 1        outliers_1      strength_1      model_1      distribution_1     
#>  2 1        outliers_1      strength_1      model_1      distribution_1     
#>  3 1        outliers_1      strength_1      model_1      distribution_1     
#>  4 1        outliers_1      strength_1      model_1      distribution_1     
#>  5 2        outliers_1      strength_2      model_1      distribution_1     
#>  6 2        outliers_1      strength_2      model_1      distribution_1     
#>  7 2        outliers_1      strength_2      model_1      distribution_1     
#>  8 2        outliers_1      strength_2      model_1      distribution_1     
#>  9 3        outliers_1      strength_3      model_1      distribution_1     
#> 10 3        outliers_1      strength_3      model_1      distribution_1     
#> # ℹ 14 more rows
#> # ℹ 11 more variables: term <chr>, estimate <dbl>, std.error <dbl>,
#> #   statistic <dbl>, p.value <dbl>, conf.low <dbl>, conf.high <dbl>,
#> #   outliers_branch_code <fct>, strength_branch_code <fct>,
#> #   model_branch_code <fct>, distribution_branch_code <fct>
…
