…
``` r
mv <- mv %>% glm_mverse()
```

### Extract Results

After completing the analysis, we can extract the results using
`summary()`. The method returns a table with branching options,
estimates, 95% confidence intervals for all regression terms across the
multiverse.

``` r
res <- summary(mv)
res
#> # A tibble: 24 x 12
#>    universe outliers_branch  strength_branch model_branch distribution_br… term 
#>    <fct>    <fct>            <fct>           <fct>        <fct>            <chr>
#>  1 1        "!Name %in% c(\… NDAM            alldeaths ~… poisson          (Int…
#>  2 1        "!Name %in% c(\… NDAM            alldeaths ~… poisson          stre…
#>  3 1        "!Name %in% c(\… NDAM            alldeaths ~… poisson          MasF…
#>  4 1        "!Name %in% c(\… NDAM            alldeaths ~… poisson          stre…
#>  5 2        "!Name %in% c(\… HighestWindSpe… alldeaths ~… poisson          (Int…
#>  6 2        "!Name %in% c(\… HighestWindSpe… alldeaths ~… poisson          stre…
#>  7 2        "!Name %in% c(\… HighestWindSpe… alldeaths ~… poisson          MasF…
#>  8 2        "!Name %in% c(\… HighestWindSpe… alldeaths ~… poisson          stre…
#>  9 3        "!Name %in% c(\… Minpressure_Up… alldeaths ~… poisson          (Int…
#> 10 3        "!Name %in% c(\… Minpressure_Up… alldeaths ~… poisson          stre…
#> # … with 14 more rows, and 6 more variables: estimate <dbl>, std.error <dbl>,
#> #   statistic <dbl>, p.value <dbl>, conf.low <dbl>, conf.high <dbl>
```
…
