Display the multiverse table with results. — summary • mverse
…
#> 3 3        Minpressure_Updated_2014        
#> 4 4        scale(NDAM)                     
#> 5 5        scale(HighestWindSpeed)         
#> 6 6        -scale(Minpressure_Updated_2014)
# Define a filter branch.
hurricane_outliers <- filter_branch(
  !Name %in% c("Katrina", "Audrey", "Andrew"),
  !Name %in% c("Katrina"),
  !Name %in% c("Katrina"),
  TRUE # include all
)
# Add the additional branch and inspect.
mv <- add_filter_branch(mv, hurricane_outliers)
summary(mv)
#> # A tibble: 24 × 3
#>    universe hurricane_strength_branch hurricane_outliers_branch                 
#>    <fct>    <fct>                     <fct>                                     
#>  1 1        NDAM                      "!Name %in% c(\"Katrina\", \"Audrey\", \"…
#>  2 2        NDAM                      "!Name %in% c(\"Katrina\")"               
#>  3 3        NDAM                      "!Name %in% c(\"Katrina\")"               
#>  4 4        NDAM                      "TRUE"                                    
#>  5 5        HighestWindSpeed          "!Name %in% c(\"Katrina\", \"Audrey\", \"…
#>  6 6        HighestWindSpeed          "!Name %in% c(\"Katrina\")"               
#>  7 7        HighestWindSpeed          "!Name %in% c(\"Katrina\")"               
#>  8 8        HighestWindSpeed          "TRUE"                                    
#>  9 9        Minpressure_Updated_2014  "!Name %in% c(\"Katrina\", \"Audrey\", \"…
#> 10 10       Minpressure_Updated_2014  "!Name %in% c(\"Katrina\")"               
#> # … with 14 more rows
…
# Create a mverse, add the branches, and fit lm models.
mv <- create_multiverse(hurricane) %>%
  add_filter_branch(hurricane_outliers) %>%
  add_mutate_branch(hurricane_strength, y) %>%
  add_formula_branch(model_specifications) %>%
  lm_mverse()
#> Warning: error in default universe
#> Error in eval(predvars, data, env) : object 'femininity' not found
#> pkgdown::deploy_to_branch -> build_site_github_pages -> build_site -> build_site_local -> build_reference -> purrr::map -> .f -> withCallingHandlers -> data_reference_topic -> run_examples -> highlight_examples -> downlit::evaluate_and_highlight -> evaluate::evaluate -> evaluate_call -> timing_fn -> handle -> try - f, silent = TRUE) -> withCallingHandlers -> withVisible -> eval_with_user_handlers -> eval -> eval -> create_multiverse -> lm_mverse -> multiverse::inside -> execute_universe -> mapply ->  -> execute_code_from_universe -> tryStack -> lapply -> FUN -> FUN -> stats::lm -> eval -> eval -> stats::model.frame -> model.frame.default -> eval -> eval -> eval(predvars, data, env)
# Display the multiverse table with estimated coefficients.
summary(mv)
#> Warning: error in default universe
#> Error in summary(model) : object 'model' not found
#> pkgdown::deploy_to_branch -> build_site_github_pages -> build_site -> build_site_local -> build_reference -> purrr::map -> .f -> withCallingHandlers -> data_reference_topic -> run_examples -> highlight_examples -> downlit::evaluate_and_highlight -> evaluate::evaluate -> evaluate_call -> timing_fn -> handle -> try - f, silent = TRUE) -> withCallingHandlers -> withVisible -> eval_with_user_handlers -> eval -> eval -> summary -> summary.lm_mverse -> multiverse::inside -> execute_universe -> mapply ->  -> execute_code_from_universe -> tryStack -> lapply -> FUN -> FUN -> summary -> summary(model)
#> # A tibble: 144 × 6
#>    universe hurricane_outliers… hurricane_stren… y_branch model_specifica… out  
#>    <fct>    <fct>               <fct>            <fct>    <fct>            <lgl>
#>  1 1        "!Name %in% c(\"Ka… NDAM             alldeat… y ~ femininity   NA   
#>  2 2        "!Name %in% c(\"Ka… NDAM             alldeat… y ~ femininity … NA   
#>  3 3        "!Name %in% c(\"Ka… NDAM             alldeat… y ~ femininity … NA   
#>  4 4        "!Name %in% c(\"Ka… NDAM             log(all… y ~ femininity   NA   
#>  5 5        "!Name %in% c(\"Ka… NDAM             log(all… y ~ femininity … NA   
#>  6 6        "!Name %in% c(\"Ka… NDAM             log(all… y ~ femininity … NA   
#>  7 7        "!Name %in% c(\"Ka… HighestWindSpeed alldeat… y ~ femininity   NA   
#>  8 8        "!Name %in% c(\"Ka… HighestWindSpeed alldeat… y ~ femininity … NA   
#>  9 9        "!Name %in% c(\"Ka… HighestWindSpeed alldeat… y ~ femininity … NA   
#> 10 10       "!Name %in% c(\"Ka… HighestWindSpeed log(all… y ~ femininity   NA   
#> # … with 134 more rows
…
mv <- create_multiverse(hurricane) %>%
  add_filter_branch(hurricane_outliers) %>%
  add_mutate_branch(hurricane_strength, y) %>%
  add_formula_branch(model_specifications) %>%
  add_family_branch(model_distributions) %>%
  glm_mverse()
#> Warning: error in default universe
#> Error in eval(predvars, data, env) : object 'femininity' not found
#> pkgdown::deploy_to_branch -> build_site_github_pages -> build_site -> build_site_local -> build_reference -> purrr::map -> .f -> withCallingHandlers -> data_reference_topic -> run_examples -> highlight_examples -> downlit::evaluate_and_highlight -> evaluate::evaluate -> evaluate_call -> timing_fn -> handle -> try - f, silent = TRUE) -> withCallingHandlers -> withVisible -> eval_with_user_handlers -> eval -> eval -> create_multiverse -> glm_mverse -> multiverse::inside -> execute_universe -> mapply ->  -> execute_code_from_universe -> tryStack -> lapply -> FUN -> FUN -> stats::glm -> eval -> eval -> stats::model.frame -> model.frame.default -> eval -> eval -> eval(predvars, data, env)
# Display the multiverse table with estimated coefficients.
summary(mv)
#> Warning: error in default universe
#> Error in summary(model) : object 'model' not found
#> pkgdown::deploy_to_branch -> build_site_github_pages -> build_site -> build_site_local -> build_reference -> purrr::map -> .f -> withCallingHandlers -> data_reference_topic -> run_examples -> highlight_examples -> downlit::evaluate_and_highlight -> evaluate::evaluate -> evaluate_call -> timing_fn -> handle -> try - f, silent = TRUE) -> withCallingHandlers -> withVisible -> eval_with_user_handlers -> eval -> eval -> summary -> summary.glm_mverse -> multiverse::inside -> execute_universe -> mapply ->  -> execute_code_from_universe -> tryStack -> lapply -> FUN -> FUN -> summary -> summary(model)
#> # A tibble: 288 × 7
#>    universe hurricane_outliers_branch hurricane_stren… y_branch model_specifica…
#>    <fct>    <fct>                     <fct>            <fct>    <fct>           
#>  1 1        "!Name %in% c(\"Katrina\… NDAM             alldeat… y ~ femininity  
#>  2 2        "!Name %in% c(\"Katrina\… NDAM             alldeat… y ~ femininity  
#>  3 3        "!Name %in% c(\"Katrina\… NDAM             alldeat… y ~ femininity …
#>  4 4        "!Name %in% c(\"Katrina\… NDAM             alldeat… y ~ femininity …
#>  5 5        "!Name %in% c(\"Katrina\… NDAM             alldeat… y ~ femininity …
#>  6 6        "!Name %in% c(\"Katrina\… NDAM             alldeat… y ~ femininity …
#>  7 7        "!Name %in% c(\"Katrina\… NDAM             log(all… y ~ femininity  
#>  8 8        "!Name %in% c(\"Katrina\… NDAM             log(all… y ~ femininity  
#>  9 9        "!Name %in% c(\"Katrina\… NDAM             log(all… y ~ femininity …
#> 10 10       "!Name %in% c(\"Katrina\… NDAM             log(all… y ~ femininity …
#> # … with 278 more rows, and 2 more variables: model_distributions_branch <fct>,
#> #   out <lgl>
…
# Create a mverse, add the branches, and fit glm models.
mv <- create_multiverse(hurricane) %>%
  add_filter_branch(hurricane_outliers) %>%
  add_mutate_branch(hurricane_strength, y) %>%
  add_formula_branch(model_specifications) %>%
  glm.nb_mverse()
#> Warning: error in default universe
#> Error in eval(predvars, data, env) : object 'femininity' not found
#> pkgdown::deploy_to_branch -> build_site_github_pages -> build_site -> build_site_local -> build_reference -> purrr::map -> .f -> withCallingHandlers -> data_reference_topic -> run_examples -> highlight_examples -> downlit::evaluate_and_highlight -> evaluate::evaluate -> evaluate_call -> timing_fn -> handle -> try - f, silent = TRUE) -> withCallingHandlers -> withVisible -> eval_with_user_handlers -> eval -> eval -> create_multiverse -> glm.nb_mverse -> multiverse::inside -> execute_universe -> mapply ->  -> execute_code_from_universe -> tryStack -> lapply -> FUN -> FUN -> MASS::glm.nb -> eval.parent -> eval -> eval -> stats::model.frame -> model.frame.default -> eval -> eval -> eval(predvars, data, env)
# Display the multiverse table with estimated coefficients.
summary(mv)
#> Warning: error in default universe
#> Error in summary(model) : object 'model' not found
#> pkgdown::deploy_to_branch -> build_site_github_pages -> build_site -> build_site_local -> build_reference -> purrr::map -> .f -> withCallingHandlers -> data_reference_topic -> run_examples -> highlight_examples -> downlit::evaluate_and_highlight -> evaluate::evaluate -> evaluate_call -> timing_fn -> handle -> try - f, silent = TRUE) -> withCallingHandlers -> withVisible -> eval_with_user_handlers -> eval -> eval -> summary -> summary.glm.nb_mverse -> multiverse::inside -> execute_universe -> mapply ->  -> execute_code_from_universe -> tryStack -> lapply -> FUN -> FUN -> summary -> summary(model)
#> # A tibble: 144 × 6
#>    universe hurricane_outliers… hurricane_stren… y_branch model_specifica… out  
#>    <fct>    <fct>               <fct>            <fct>    <fct>            <lgl>
#>  1 1        "!Name %in% c(\"Ka… NDAM             alldeat… y ~ femininity   NA   
#>  2 2        "!Name %in% c(\"Ka… NDAM             alldeat… y ~ femininity … NA   
#>  3 3        "!Name %in% c(\"Ka… NDAM             alldeat… y ~ femininity … NA   
#>  4 4        "!Name %in% c(\"Ka… NDAM             log(all… y ~ femininity   NA   
#>  5 5        "!Name %in% c(\"Ka… NDAM             log(all… y ~ femininity … NA   
#>  6 6        "!Name %in% c(\"Ka… NDAM             log(all… y ~ femininity … NA   
#>  7 7        "!Name %in% c(\"Ka… HighestWindSpeed alldeat… y ~ femininity   NA   
#>  8 8        "!Name %in% c(\"Ka… HighestWindSpeed alldeat… y ~ femininity … NA   
#>  9 9        "!Name %in% c(\"Ka… HighestWindSpeed alldeat… y ~ femininity … NA   
#> 10 10       "!Name %in% c(\"Ka… HighestWindSpeed log(all… y ~ femininity   NA   
#> # … with 134 more rows
…
