Case Study. Are female hurricanes deadlier than male hurricanes? • mverse
…
femininity <- variable_branch(
  female,
  masfem
)
damage <- variable_branch(
  dam,
  log(dam)
)
mv <- mv %>%
  add_variable_branch(femininity, damage) %>%
  execute_multiverse()
summary(mv)
## # A tibble: 48 x 5
##    universe death_outliers_br… damage_outliers_b… femininity_bran… damage_branch
##       <int> <chr>              <chr>              <chr>            <chr>        
##  1        1 "TRUE"             "TRUE"             female           dam          
##  2        2 "name != \"Katrin… "TRUE"             female           dam          
##  3        3 "!(name %in% c(\"… "TRUE"             female           dam          
##  4        4 "TRUE"             "name != \"Sandy\… female           dam          
##  5        5 "name != \"Katrin… "name != \"Sandy\… female           dam          
##  6        6 "!(name %in% c(\"… "name != \"Sandy\… female           dam          
##  7        7 "TRUE"             "!(name %in% c(\"… female           dam          
##  8        8 "name != \"Katrin… "!(name %in% c(\"… female           dam          
##  9        9 "!(name %in% c(\"… "!(name %in% c(\"… female           dam          
## 10       10 "TRUE"             "!(name %in% c(\"… female           dam          
## # … with 38 more rows
…
