GLM Modelling with mverse • mverse
…
Finally, let’s create a family_branch() that defines two
different members of the Exponential family as branches.

distributions <- family_branch(poisson, gaussian)

Adding this branch to hurricane_mv with
add_family_branch().

hurricane_mv <- hurricane_mv |> add_family_branch(distributions)

summary(hurricane_mv)
## # A tibble: 24 × 11
##    universe death_outliers_branch femininity_branch damage_branch models_branch
##    <fct>    <fct>                 <fct>             <fct>         <fct>        
##  1 1        none                  binary            original      models_1     
##  2 2        none                  binary            original      models_1     
##  3 3        none                  binary            log           models_1     
##  4 4        none                  binary            log           models_1     
##  5 5        none                  continuous        original      models_1     
##  6 6        none                  continuous        original      models_1     
##  7 7        none                  continuous        log           models_1     
##  8 8        none                  continuous        log           models_1     
##  9 9        Katrina               binary            original      models_1     
## 10 10       Katrina               binary            original      models_1     
## # ℹ 14 more rows
## # ℹ 6 more variables: distributions_branch <fct>,
## #   death_outliers_branch_code <fct>, femininity_branch_code <fct>,
## #   damage_branch_code <fct>, models_branch_code <fct>,
## #   distributions_branch_code <fct>
…
glm_mverse(hurricane_mv)

glm_summary <- summary(hurricane_mv)

glm_summary
## # A tibble: 72 × 18
##    universe death_outliers_branch femininity_branch damage_branch models_branch
##    <fct>    <fct>                 <fct>             <fct>         <fct>        
##  1 1        none                  binary            original      models_1     
##  2 1        none                  binary            original      models_1     
##  3 1        none                  binary            original      models_1     
##  4 2        none                  binary            original      models_1     
##  5 2        none                  binary            original      models_1     
##  6 2        none                  binary            original      models_1     
##  7 3        none                  binary            log           models_1     
##  8 3        none                  binary            log           models_1     
##  9 3        none                  binary            log           models_1     
## 10 4        none                  binary            log           models_1     
## # ℹ 62 more rows
## # ℹ 13 more variables: distributions_branch <fct>, term <chr>, estimate <dbl>,
## #   std.error <dbl>, statistic <dbl>, p.value <dbl>, conf.low <dbl>,
## #   conf.high <dbl>, death_outliers_branch_code <fct>,
## #   femininity_branch_code <fct>, damage_branch_code <fct>,
## #   models_branch_code <fct>, distributions_branch_code <fct>
…
glm_mverse(hurricane_mv)

summary(hurricane_mv)
## # A tibble: 24 × 18
##    universe femininity_branch damage_branch models_branch distributions_branch
##    <fct>    <fct>             <fct>         <fct>         <fct>               
##  1 1        binary_gender     damage_orig   models_1      distributions_1     
##  2 1        binary_gender     damage_orig   models_1      distributions_1     
##  3 1        binary_gender     damage_orig   models_1      distributions_1     
##  4 2        binary_gender     damage_orig   models_1      distributions_2     
##  5 2        binary_gender     damage_orig   models_1      distributions_2     
##  6 2        binary_gender     damage_orig   models_1      distributions_2     
##  7 3        binary_gender     damage_log    models_1      distributions_1     
##  8 3        binary_gender     damage_log    models_1      distributions_1     
##  9 3        binary_gender     damage_log    models_1      distributions_1     
## 10 4        binary_gender     damage_log    models_1      distributions_2     
## # ℹ 14 more rows
## # ℹ 13 more variables: dep_var_branch <fct>, term <chr>, estimate <dbl>,
## #   std.error <dbl>, statistic <dbl>, p.value <dbl>, conf.low <dbl>,
## #   conf.high <dbl>, femininity_branch_code <fct>, damage_branch_code <fct>,
## #   models_branch_code <fct>, distributions_branch_code <fct>,
## #   dep_var_branch_code <fct>
…
